Siesta Version  : 5.0.0-alpha-123-gfb8fd7d02
Architecture    : ----
Compiler version: GNU-11.4.0
Compiler flags  : -fallow-argument-mismatch;-O3 -march=native
PP flags        : ----
Libraries       : ----
Parallelisations: none
GEMM3M support
NetCDF support
NetCDF-4 support
Lua support

Runtime information:
* Directory : /home/fnpedron/Siesta/siesta-dev/Tests/09.MolecularDynamics/work/anneal_pt_half_restart
* Running in serial mode.
>> Start of run:  28-SEP-2023  15:37:56

                           *********************** 
                           *  WELCOME TO SIESTA  * 
                           *********************** 

reinit: Reading from standard input
reinit: Dumping input in INPUT_TMP.69822
************************** Dump of input data file ****************************
%include ../../basejob.fdf
SystemLabel           anneal_pt
MD.TypeOfRun          anneal
MD.AnnealOption       TemperatureAndPressure
MD.InitialTemperature 100 K
MD.TargetTemperature  600 K
MD.TauRelax           25 fs
MD.TargetPressure     10.0 GPa
************************** End of input data file *****************************

reinit: -----------------------------------------------------------------------
reinit: System Name: Water molecules MD
reinit: -----------------------------------------------------------------------
reinit: System Label: anneal_pt
reinit: -----------------------------------------------------------------------

initatom: Reading input for the pseudopotentials and atomic orbitals ----------
Species number:   1 Atomic number:    8 Label: O
Species number:   2 Atomic number:    1 Label: H


---- Processing specs for species: O
Ground state valence configuration:   2s02  2p04
Reading pseudopotential information in formatted form from:
  /home/fnpedron/Siesta/siesta-dev/Tests/Pseudos/O.psf

---- Processing specs for species: H
Ground state valence configuration:   1s01
Reading pseudopotential information in formatted form from:
  /home/fnpedron/Siesta/siesta-dev/Tests/Pseudos/H.psf

---- Pseudopotential check for O 

Pseudized shells:
2s( 2.00) rc: 1.14
2p( 4.00) rc: 1.14
3d( 0.00) rc: 1.14
4f( 0.00) rc: 1.14
Valence configuration for ps generation: (assumed as above)

---- Pseudopotential check for H 

Pseudized shells:
1s( 1.00) rc: 1.25
2p( 0.00) rc: 1.25
3d( 0.00) rc: 1.25
4f( 0.00) rc: 1.25
Valence configuration for ps generation: (assumed as above)
For O, standard SIESTA heuristics set lmxkb to 2
 (one more than the basis l, including polarization orbitals).
Use PS.lmax or PS.KBprojectors blocks to override.
For H, standard SIESTA heuristics set lmxkb to 1
 (one more than the basis l, including polarization orbitals).
Use PS.lmax or PS.KBprojectors blocks to override.

<basis_specs>
===============================================================================
O                    Z=   8    Mass=  15.999        Charge= 0.17977+309
Lmxo=1 Lmxkb= 2    BasisType=split      Semic=F
L=0  Nsemic=0  Cnfigmx=2
          i=1  nzeta=1  polorb=0  (2s)
            splnorm:   0.15000    
               vcte:    40.000    
               rinn:  -0.90000    
               qcoe:    0.0000    
               qyuk:    0.0000    
               qwid:   0.10000E-01
                rcs:    0.0000    
            lambdas:    1.0000    
L=1  Nsemic=0  Cnfigmx=2
          i=1  nzeta=1  polorb=0  (2p)
            splnorm:   0.15000    
               vcte:    40.000    
               rinn:  -0.90000    
               qcoe:    0.0000    
               qyuk:    0.0000    
               qwid:   0.10000E-01
                rcs:    0.0000    
            lambdas:    1.0000    
-------------------------------------------------------------------------------
L=0  Nkbl=1  erefs: 0.17977+309
L=1  Nkbl=1  erefs: 0.17977+309
L=2  Nkbl=1  erefs: 0.17977+309
===============================================================================
</basis_specs>

Using PAO.SplitTailNorm
atom: Called for O                     (Z =   8)
Maximum radius (at nrval) set to   50.00000 8518

read_vps: Pseudopotential generation method:
read_vps: ATM3      Troullier-Martins                       
Valence charge in pseudo generation:    6.00000

xc_check: Exchange-correlation functional:
xc_check: Ceperley-Alder
V l=0 = -2*Zval/r beyond r=  1.1366
V l=1 = -2*Zval/r beyond r=  1.1332
V l=2 = -2*Zval/r beyond r=  1.1298
All V_l potentials equal beyond r=  1.1355
This should be close to max(r_c) in ps generation
All pots = -2*Zval/r beyond r=  1.1366
Using small-core scheme (local charge) for Vlocal

VLOCAL_FROM_CHLOCAL: 99.0% of the norm of Vloc inside     33.667 Ry
VLOCAL_FROM_CHLOCAL: 99.9% of the norm of Vloc inside     76.727 Ry
atom: Maximum radius for chlocal:    1.37241
atom: Maximum radius for r*vlocal+2*Zval:    1.25469

KBgen: Kleinman-Bylander projectors: 
GHOST: No ghost state for L =  0
   l= 0   rc=  1.293209   el= -1.742414   Ekb=  9.076872   kbcos=  0.325320
GHOST: No ghost state for L =  1
   l= 1   rc=  1.284119   el= -0.676589   Ekb= -8.194485   kbcos= -0.396010
GHOST: No ghost state for L =  2
   l= 2   rc=  1.433152   el=  0.013307   Ekb= -2.071665   kbcos= -0.003690

KBgen: Total number of Kleinman-Bylander projectors:   9
atom: -------------------------------------------------------------------------

atom: SANKEY-TYPE ORBITALS:

SPLIT: Orbitals with angular momentum L= 0

SPLIT: Basis orbitals for state 2s

SPLIT: PAO cut-off radius determined from an
SPLIT: energy shift=  0.010000 Ry
Split based on tail norm

   izeta = 1
                 lambda =    1.000000
                     rc =    3.560943
                 energy =   -1.731321
                kinetic =    1.587329
    potential(screened) =   -3.318651
       potential(ionic) =  -11.260325

SPLIT: Orbitals with angular momentum L= 1

SPLIT: Basis orbitals for state 2p

SPLIT: PAO cut-off radius determined from an
SPLIT: energy shift=  0.010000 Ry
Split based on tail norm

   izeta = 1
                 lambda =    1.000000
                     rc =    4.290924
                 energy =   -0.665565
                kinetic =    4.934810
    potential(screened) =   -5.600376
       potential(ionic) =  -13.346429
atom: Total number of Sankey-type orbitals:  4

atm_pop: Valence configuration (for local Pseudopot. screening):
 2s( 2.00)                                                            
 2p( 4.00)                                                            
Vna: chval, zval:    6.00000   6.00000

Vna:  Cut-off radius for the neutral-atom potential:   4.290924

atom: _________________________________________________________________________

<basis_specs>
===============================================================================
H                    Z=   1    Mass=  1.0080        Charge= 0.17977+309
Lmxo=0 Lmxkb= 1    BasisType=split      Semic=F
L=0  Nsemic=0  Cnfigmx=1
          i=1  nzeta=1  polorb=0  (1s)
            splnorm:   0.15000    
               vcte:    40.000    
               rinn:  -0.90000    
               qcoe:    0.0000    
               qyuk:    0.0000    
               qwid:   0.10000E-01
                rcs:    0.0000    
            lambdas:    1.0000    
-------------------------------------------------------------------------------
L=0  Nkbl=1  erefs: 0.17977+309
L=1  Nkbl=1  erefs: 0.17977+309
===============================================================================
</basis_specs>

Using PAO.SplitTailNorm
atom: Called for H                     (Z =   1)
Maximum radius (at nrval) set to   50.00000 8518

read_vps: Pseudopotential generation method:
read_vps: ATM3      Troullier-Martins                       
Valence charge in pseudo generation:    1.00000

xc_check: Exchange-correlation functional:
xc_check: Ceperley-Alder
V l=0 = -2*Zval/r beyond r=  1.2384
V l=1 = -2*Zval/r beyond r=  1.2321
All V_l potentials equal beyond r=  1.2371
This should be close to max(r_c) in ps generation
All pots = -2*Zval/r beyond r=  1.2384
Using small-core scheme (local charge) for Vlocal

VLOCAL_FROM_CHLOCAL: 99.0% of the norm of Vloc inside     28.363 Ry
VLOCAL_FROM_CHLOCAL: 99.9% of the norm of Vloc inside     64.639 Ry
atom: Maximum radius for chlocal:    1.44620
atom: Maximum radius for r*vlocal+2*Zval:    1.31026

KBgen: Kleinman-Bylander projectors: 
GHOST: No ghost state for L =  0
   l= 0   rc=  1.364142   el= -0.467325   Ekb= -2.009475   kbcos= -0.336680
GHOST: No ghost state for L =  1
   l= 1   rc=  1.430269   el=  0.007562   Ekb= -0.503817   kbcos= -0.022554

KBgen: Total number of Kleinman-Bylander projectors:   4
atom: -------------------------------------------------------------------------

atom: SANKEY-TYPE ORBITALS:

SPLIT: Orbitals with angular momentum L= 0

SPLIT: Basis orbitals for state 1s

SPLIT: PAO cut-off radius determined from an
SPLIT: energy shift=  0.010000 Ry
Split based on tail norm

   izeta = 1
                 lambda =    1.000000
                     rc =    5.285354
                 energy =   -0.456120
                kinetic =    0.900445
    potential(screened) =   -1.356565
       potential(ionic) =   -1.890080
atom: Total number of Sankey-type orbitals:  1

atm_pop: Valence configuration (for local Pseudopot. screening):
 1s( 1.00)                                                            
Vna: chval, zval:    1.00000   1.00000

Vna:  Cut-off radius for the neutral-atom potential:   5.285354

atom: _________________________________________________________________________

prinput: Basis input 

PAO.BasisType split     

%block ChemicalSpeciesLabel
    1    8 O                       # Species index, atomic number, species label
    2    1 H                       # Species index, atomic number, species label
%endblock ChemicalSpeciesLabel

%block PAO.Basis                 # Define Basis set
# WARNING: This information might be incomplete!
O                     2                    # Species label, number of l-shells
 n=2   0   1                         # n, l, Nzeta 
   3.561   
   1.000   
 n=2   1   1                         # n, l, Nzeta 
   4.291   
   1.000   
H                     1                    # Species label, number of l-shells
 n=1   0   1                         # n, l, Nzeta 
   5.285   
   1.000   
%endblock PAO.Basis

prinput: ----------------------------------------------------------------------

Dumping basis to NetCDF file O.ion.nc
Dumping basis to NetCDF file H.ion.nc
coor:   Atomic-coordinates input format  =     Cartesian coordinates
coor:                                          (in Angstroms)

ioxv: Reading coordinates and velocities from file
! Info in XV file prevails over previous structure input

siesta: Atomic coordinates (Bohr) and species
siesta:      0.04068  -0.09324  -0.01331  1        1
siesta:      1.39878   1.32834   0.04549  2        2
siesta:     -1.42479   1.21969  -0.05416  2        3
siesta:     -0.03078   0.09200   5.46268  1        4
siesta:      1.34551  -1.31378   5.18590  2        5
siesta:     -1.47535  -1.20987   5.72273  2        6

siesta: System type = chain     

initatomlists: Number of atoms, orbitals, and projectors:      6    12    34

siesta: ******************** Simulation parameters ****************************
siesta:
siesta: The following are some of the parameters of the simulation.
siesta: A complete list of the parameters used, including default values,
siesta: can be found in file out.fdf
siesta:
redata: Spin configuration                          = none
redata: Number of spin components                   = 1
redata: Time-Reversal Symmetry                      = T
redata: Spin spiral                                 = F
redata: Long output                                 =   F
redata: Number of Atomic Species                    =        2
redata: Charge density info will appear in .RHO file
redata: Write Mulliken Pop.                         = NO
redata: Matel table size (NRTAB)                    =     1024
redata: Mesh Cutoff                                 =   100.0000 Ry
redata: Net charge of the system                    =     0.0000 |e|
redata: Min. number of SCF Iter                     =        0
redata: Max. number of SCF Iter                     =     1000
redata: SCF convergence failure will abort job
redata: SCF mix quantity                            = Hamiltonian
redata: Mix DM or H after convergence               =   F
redata: Recompute H after scf cycle                 =   F
redata: Mix DM in first SCF step                    =   T
redata: Write Pulay info on disk                    =   F
redata: New DM Occupancy tolerance                  = 0.000000000001
redata: No kicks to SCF
redata: DM Mixing Weight for Kicks                  =     0.5000
redata: Require Harris convergence for SCF          =   F
redata: Harris energy tolerance for SCF             =     0.000100 eV
redata: Require DM convergence for SCF              =   T
redata: DM tolerance for SCF                        =     0.000100
redata: Require EDM convergence for SCF             =   F
redata: EDM tolerance for SCF                       =     0.001000 eV
redata: Require H convergence for SCF               =   T
redata: Hamiltonian tolerance for SCF               =     0.001000 eV
redata: Require (free) Energy convergence for SCF   =   F
redata: (free) Energy tolerance for SCF             =     0.000100 eV
redata: Using DFT-D3 dispersion                     =   F
redata: Using Saved Data (generic)                  =   F
redata: Use continuation files for DM               =   F
redata: Neglect nonoverlap interactions             =   F
redata: Method of Calculation                       = Diagonalization
redata: Electronic Temperature                      =   299.9863 K
redata: Fix the spin of the system                  =   F
redata: Max. number of TDED Iter                    =        1
redata: Number of TDED substeps                     =        3
redata: Dynamics option                             = Annealing MD run
redata: Initial MD time step                        =        1
redata:   Final MD time step                        =       10
redata: Length of MD time step                      =     1.0000 fs
redata: Initial Temperature of MD run               =   100.0000 K
redata: Annealing Option                            = Temperature and Pressure
redata: Target Temperature                          =   600.0000 Kelvin
redata: Target Pressure                             =     0.0624 eV/Ang**3
redata: Annealing Relaxation Time                   =    25.0000 fs
redata: Approx. Bulk Modulus                        =     0.6241 eV/Ang**3
mix.SCF: Pulay mixing                            = Pulay
mix.SCF:    Variant                              = stable
mix.SCF:    History steps                        = 2
mix.SCF:    Linear mixing weight                 =     0.250000
mix.SCF:    Mixing weight                        =     0.250000
mix.SCF:    SVD condition                        = 0.1000E-07
redata: Save all siesta data in one NC              =   F
redata: ***********************************************************************

%block SCF.Mixers
  Pulay
%endblock SCF.Mixers

%block SCF.Mixer.Pulay
  # Mixing method
  method pulay
  variant stable

  # Mixing options
  weight 0.2500
  weight.linear 0.2500
  history 2
%endblock SCF.Mixer.Pulay

Size of DM history Fstack: 1
Total number of electrons:    16.000000
Total ionic charge:    16.000000

siesta: k-grid: Number of k-points = 1
siesta: k-point is Gamma-only

diag: Algorithm                                     = D&C
diag: Used triangular part                          = Lower
diag: Absolute tolerance                            =  0.100E-15
diag: Orthogonalization factor                      =  0.100E-05
diag: Memory factor                                 =  1.0000


ts: **************************************************************
ts: Save H and S matrices                           =    F
ts: Save DM and EDM matrices                        =    F
ts: Only save the overlap matrix S                  =    F
ts: **************************************************************

************************ Begin: TS CHECKS AND WARNINGS ************************
************************ End: TS CHECKS AND WARNINGS **************************


                     ====================================
                        Begin MD step =      1
                     ====================================

outcoor: Atomic coordinates (Ang):                          
    0.02152719   -0.04934056   -0.00704160   1       1  O
    0.74020332    0.70292917    0.02407208   2       2  H
   -0.75396657    0.64543120   -0.02866123   2       3  H
   -0.01628910    0.04868541    2.89072592   1       4  O
    0.71201239   -0.69522137    2.74426249   2       5  H
   -0.78072312   -0.64023527    3.02833608   2       6  H

outcell: Unit cell vectors (Ang):
        9.596870    0.000000    0.000000
        0.000000    9.603682    0.000000
        0.000000    0.000000    7.685674

outcell: Cell vector modules (Ang)   :    9.596870    9.603682    7.685674
outcell: Cell angles (23,13,12) (deg):     90.0000     90.0000     90.0000
outcell: Cell volume (Ang**3)        :    708.3524
Gamma-point calculation with multiply-connected orbital pairs
Folding of H and S implicitly performed
<dSpData1D:S at geom step 1
  <sparsity:sparsity for geom step 1
    nrows_g=12 nrows=12 sparsity=1.0000 nnzs=144, refcount: 7>
  <dData1D:(new from dSpData1D) n=144, refcount: 1>
refcount: 1>
new_DM -- step:     1
Initializing Density Matrix...
DM filled with atomic data:
<dSpData2D:DM initialized from atoms
  <sparsity:sparsity for geom step 1
    nrows_g=12 nrows=12 sparsity=1.0000 nnzs=144, refcount: 8>
  <dData2D:DM n=144 m=1, refcount: 1>
refcount: 1>
No. of atoms with KB's overlaping orbs in proc 0. Max # of overlaps:       6      11

InitMesh: MESH = 60 x 60 x 48 = 172800
InitMesh: Mesh cutoff (required, used) =   100.000   107.800 Ry
New grid distribution [1]: sub = 2

stepf: Fermi-Dirac step function

siesta: Program's energy decomposition (eV):
siesta: Ebs     =      -142.789941
siesta: Eions   =      1621.026762
siesta: Ena     =       347.346256
siesta: Ekin    =       744.871452
siesta: Enl     =      -134.325250
siesta: Eso     =         0.000000
siesta: Edftu   =         0.000000
siesta: DEna    =       -37.211953
siesta: DUscf   =         7.769037
siesta: DUext   =         0.000000
siesta: Ex      =      -205.025360
siesta: Ec      =       -25.318912
siesta: Exc     =      -230.344272
siesta: EbV     =         0.000000
siesta: eta*DQ  =         0.000000
siesta: Emadel  =         0.000000
siesta: Emeta   =         0.000000
siesta: Emolmec =         0.000000
siesta: Ekinion =         0.000000
siesta: Eharris =      -916.851696
siesta: Etot    =      -922.921492
siesta: FreeEng =      -922.921492

        iscf     Eharris(eV)        E_KS(eV)     FreeEng(eV)     dDmax    Ef(eV) dHmax(eV)
   scf:    1     -916.851696     -922.921492     -922.921492  0.680254 -4.369350  7.409421
timer: Routine,Calls,Time,% = IterSCF        1       0.012  10.58
   scf:    2     -926.426181     -924.879777     -924.879777  0.151661 -3.531491  3.560261
   scf:    3     -925.622468     -925.419032     -925.419032  0.130015 -2.848997  0.713003
   scf:    4     -925.440466     -925.430218     -925.430218  0.009501 -2.918535  0.521595
   scf:    5     -925.446344     -925.438925     -925.438925  0.019540 -3.013171  0.171597
   scf:    6     -925.440431     -925.439719     -925.439719  0.006403 -3.023400  0.091154
   scf:    7     -925.439872     -925.439815     -925.439815  0.003140 -3.022564  0.028411
   scf:    8     -925.439827     -925.439822     -925.439822  0.000236 -3.019337  0.014102
   scf:    9     -925.439834     -925.439828     -925.439828  0.000305 -3.015354  0.009572
   scf:   10     -925.439833     -925.439831     -925.439831  0.000264 -3.013970  0.005714
   scf:   11     -925.439833     -925.439832     -925.439832  0.000274 -3.012853  0.003205
   scf:   12     -925.439832     -925.439832     -925.439832  0.000056 -3.012776  0.002474
   scf:   13     -925.439832     -925.439832     -925.439832  0.000049 -3.012780  0.001308
   scf:   14     -925.439832     -925.439832     -925.439832  0.000006 -3.012858  0.000753

SCF Convergence by DM+H criterion
max |DM_out - DM_in|         :     0.0000058600
max |H_out - H_in|      (eV) :     0.0007527327
SCF cycle converged after 14 iterations

Using DM_out to compute the final energy and forces
No. of atoms with KB's overlaping orbs in proc 0. Max # of overlaps:       6      11

siesta: E_KS(eV) =             -925.4398

siesta: E_KS - E_eggbox =      -925.4398

siesta: Atomic forces (eV/Ang):
     1    0.090585   -1.678735    0.159978
     2    2.246432    0.991683    0.215099
     3   -2.305119    0.793488    0.063020
     4    0.519126    1.558507   -0.273758
     5    1.704186   -0.673349   -0.515442
     6   -2.244008   -0.998770    0.319441
----------------------------------------
   Tot    0.011203   -0.007176   -0.031661
----------------------------------------
   Max    2.305119
   Res    1.233944    sqrt( Sum f_i^2 / 3N )
----------------------------------------
   Max    2.305119    constrained

Stress tensor Voigt[x,y,z,yz,xz,xy] (kbar):      -17.47       -6.25        0.01       -0.70        0.96       -0.70
(Free)E + p*V (eV/cell)     -921.9451
Target enthalpy (eV/cell)     -881.2280

siesta: Stress tensor (static) (eV/Ang**3):
        -0.008983   -0.000517    0.000729
        -0.000517   -0.003475   -0.000491
         0.000729   -0.000491    0.000036

siesta: Pressure (static):          6.63398462  kBar

siesta: Stress tensor (total) (eV/Ang**3):
        -0.010907   -0.000436    0.000599
        -0.000436   -0.003901   -0.000438
         0.000599   -0.000438    0.000007

siesta: Pressure (total):          7.90442608  kBar
 Anneal: Kinetic Energy=    6.1924742523074436E-002
 Anneal: Velocity scale factor =   0.98914624048810007     
 Anneal: Cell scale factor =   0.99599138399406717     

siesta: Temp_ion =    1275.474 K

                     ====================================
                        Begin MD step =      2
                     ====================================

outcoor: Atomic coordinates (Ang):                          
    0.02359660   -0.04931333   -0.00734854   1       1  O
    0.69744257    0.67700234    0.02982393   2       2  H
   -0.71073473    0.61535557   -0.02608639   2       3  H
   -0.01756593    0.04959889    2.87944295   1       4  O
    0.65353309   -0.67309909    2.71978262   2       5  H
   -0.73508970   -0.62140866    3.02301174   2       6  H

outcell: Unit cell vectors (Ang):
        9.565112    0.000000    0.000000
        0.000000    9.567595    0.000000
        0.000000    0.000000    7.654865

outcell: Cell vector modules (Ang)   :    9.565112    9.567595    7.654865
outcell: Cell angles (23,13,12) (deg):     90.0000     90.0000     90.0000
outcell: Cell volume (Ang**3)        :    700.5358
Gamma-point calculation with multiply-connected orbital pairs
Folding of H and S implicitly performed
<dSpData1D:S at geom step 2
  <sparsity:sparsity for geom step 2
    nrows_g=12 nrows=12 sparsity=1.0000 nnzs=144, refcount: 7>
  <dData1D:(new from dSpData1D) n=144, refcount: 1>
refcount: 1>
new_DM -- step:     2
Re-using DM from previous geometries...
Number of DMs in history: 1
 DM extrapolation coefficients: 
1   1.00000
New DM after history re-use:
<dSpData2D:SpM extrapolated using coords
  <sparsity:sparsity for geom step 2
    nrows_g=12 nrows=12 sparsity=1.0000 nnzs=144, refcount: 9>
  <dData2D:(temp array for extrapolation) n=144 m=1, refcount: 1>
refcount: 1>
No. of atoms with KB's overlaping orbs in proc 0. Max # of overlaps:       6      11

InitMesh: MESH = 60 x 60 x 48 = 172800
InitMesh: Mesh cutoff (required, used) =   100.000   108.670 Ry
New grid distribution [1]: sub = 2

        iscf     Eharris(eV)        E_KS(eV)     FreeEng(eV)     dDmax    Ef(eV) dHmax(eV)
   scf:    1     -923.618113     -924.680663     -924.680663  0.081895 -2.638623  0.809449
   scf:    2     -924.525514     -924.659078     -924.659078  0.074773 -2.219903  1.098383
   scf:    3     -924.747266     -924.721191     -924.721191  0.042608 -2.469327  0.071525
   scf:    4     -924.721389     -924.721292     -924.721292  0.001360 -2.476357  0.051122
   scf:    5     -924.721467     -924.721390     -924.721390  0.003464 -2.496387  0.006133
   scf:    6     -924.721391     -924.721391     -924.721391  0.000104 -2.497532  0.002932
   scf:    7     -924.721391     -924.721391     -924.721391  0.000094 -2.498457  0.000852

SCF Convergence by DM+H criterion
max |DM_out - DM_in|         :     0.0000936318
max |H_out - H_in|      (eV) :     0.0008521994
SCF cycle converged after 7 iterations

Using DM_out to compute the final energy and forces
No. of atoms with KB's overlaping orbs in proc 0. Max # of overlaps:       6      11

siesta: E_KS(eV) =             -924.7214

siesta: Atomic forces (eV/Ang):
     1    0.283809   -4.533798    0.113272
     2    4.276048    2.501678    0.346677
     3   -4.529065    2.152406    0.005613
     4    0.461134    4.204592   -0.199265
     5    3.813838   -2.149738   -1.079159
     6   -4.289495   -2.173912    0.789976
----------------------------------------
   Tot    0.016268    0.001227   -0.022886
----------------------------------------
   Max    4.533798
   Res    2.712821    sqrt( Sum f_i^2 / 3N )
----------------------------------------
   Max    4.533798    constrained

Stress tensor Voigt[x,y,z,yz,xz,xy] (kbar):      -30.13      -14.92       -0.13       -1.02        2.23       -0.37
(Free)E + p*V (eV/cell)     -918.1365
Target enthalpy (eV/cell)     -880.9974

siesta: Stress tensor (static) (eV/Ang**3):
        -0.016915   -0.000311    0.001516
        -0.000310   -0.008891   -0.000688
         0.001516   -0.000687   -0.000056

siesta: Pressure (static):         13.81183595  kBar

siesta: Stress tensor (total) (eV/Ang**3):
        -0.018806   -0.000231    0.001389
        -0.000231   -0.009309   -0.000636
         0.001389   -0.000636   -0.000084

siesta: Pressure (total):         15.06019141  kBar
 Anneal: Kinetic Energy=    1.5358401149618207E-002
 Anneal: Velocity scale factor =    1.0169709301357501     
 Anneal: Cell scale factor =   0.99600071146226510     

siesta: Temp_ion =     334.387 K

                     ====================================
                        Begin MD step =      3
                     ====================================

outcoor: Atomic coordinates (Ang):                          
    0.02590881   -0.05207826   -0.00759511   1       1  O
    0.69537064    0.67495617    0.03908853   2       2  H
   -0.71064149    0.60563500   -0.02339437   2       3  H
   -0.01860505    0.05312840    2.86811944   1       4  O
    0.63080062   -0.67154249    2.68456152   2       5  H
   -0.73021604   -0.62344679    3.02559927   2       6  H

outcell: Unit cell vectors (Ang):
        9.537445    0.000000    0.000000
        0.000000    9.534783    0.000000
        0.000000    0.000000    7.624251

outcell: Cell vector modules (Ang)   :    9.537445    9.534783    7.624251
outcell: Cell angles (23,13,12) (deg):     90.0000     90.0000     90.0000
outcell: Cell volume (Ang**3)        :    693.3300
Gamma-point calculation with multiply-connected orbital pairs
Folding of H and S implicitly performed
<dSpData1D:S at geom step 3
  <sparsity:sparsity for geom step 3
    nrows_g=12 nrows=12 sparsity=1.0000 nnzs=144, refcount: 7>
  <dData1D:(new from dSpData1D) n=144, refcount: 1>
refcount: 1>
new_DM -- step:     3
Re-using DM from previous geometries...
Number of DMs in history: 1
 DM extrapolation coefficients: 
1   1.00000
New DM after history re-use:
<dSpData2D:SpM extrapolated using coords
  <sparsity:sparsity for geom step 3
    nrows_g=12 nrows=12 sparsity=1.0000 nnzs=144, refcount: 9>
  <dData2D:(temp array for extrapolation) n=144 m=1, refcount: 1>
refcount: 1>
No. of atoms with KB's overlaping orbs in proc 0. Max # of overlaps:       6      11

InitMesh: MESH = 60 x 60 x 48 = 172800
InitMesh: Mesh cutoff (required, used) =   100.000   109.381 Ry
New grid distribution [1]: sub = 2

        iscf     Eharris(eV)        E_KS(eV)     FreeEng(eV)     dDmax    Ef(eV) dHmax(eV)
   scf:    1     -924.583120     -924.647270     -924.647270  0.031730 -2.460244  0.058677
   scf:    2     -924.647551     -924.647473     -924.647473  0.005268 -2.467452  0.021021
   scf:    3     -924.647543     -924.647514     -924.647514  0.001299 -2.468236  0.009738
   scf:    4     -924.647518     -924.647516     -924.647516  0.000150 -2.469534  0.005457
   scf:    5     -924.647518     -924.647517     -924.647517  0.000234 -2.471089  0.003496
   scf:    6     -924.647518     -924.647518     -924.647518  0.000135 -2.471583  0.002018
   scf:    7     -924.647518     -924.647518     -924.647518  0.000132 -2.471969  0.000434
   scf:    8     -924.647518     -924.647518     -924.647518  0.000015 -2.471967  0.000257

SCF Convergence by DM+H criterion
max |DM_out - DM_in|         :     0.0000148308
max |H_out - H_in|      (eV) :     0.0002571821
SCF cycle converged after 8 iterations

Using DM_out to compute the final energy and forces
No. of atoms with KB's overlaping orbs in proc 0. Max # of overlaps:       6      11

siesta: E_KS(eV) =             -924.6475

siesta: Atomic forces (eV/Ang):
     1    0.371544   -4.722510    0.072634
     2    4.330719    2.591632    0.395569
     3   -4.665990    2.231877    0.007831
     4    0.056930    4.452849   -0.042123
     5    4.251252   -2.496267   -1.363028
     6   -4.321149   -2.048955    0.916631
----------------------------------------
   Tot    0.023305    0.008626   -0.012486
----------------------------------------
   Max    4.722510
   Res    2.833650    sqrt( Sum f_i^2 / 3N )
----------------------------------------
   Max    4.722510    constrained

Stress tensor Voigt[x,y,z,yz,xz,xy] (kbar):      -28.84      -15.19       -0.37       -1.41        2.75        0.28
(Free)E + p*V (eV/cell)     -918.2442
Target enthalpy (eV/cell)     -881.3733

siesta: Stress tensor (static) (eV/Ang**3):
        -0.017564    0.000112    0.001844
         0.000112   -0.009375   -0.000915
         0.001844   -0.000915   -0.000147

siesta: Pressure (static):         14.46613025  kBar

siesta: Stress tensor (total) (eV/Ang**3):
        -0.017998    0.000177    0.001716
         0.000177   -0.009480   -0.000881
         0.001715   -0.000881   -0.000229

siesta: Pressure (total):         14.79698804  kBar
 Anneal: Kinetic Energy=    1.5894067917344525E-002
 Anneal: Velocity scale factor =    1.0157402004098874     
 Anneal: Cell scale factor =   0.99601589617482988     

siesta: Temp_ion =     345.213 K

                     ====================================
                        Begin MD step =      4
                     ====================================

outcoor: Atomic coordinates (Ang):                          
    0.02850991   -0.05780074   -0.00780406   1       1  O
    0.73530834    0.69806153    0.05240415   2       2  H
   -0.75586050    0.61738318   -0.02056681   2       3  H
   -0.01963801    0.05946968    2.85686432   1       4  O
    0.64877228   -0.69422489    2.63565633   2       5  H
   -0.76719152   -0.64547115    3.03750069   2       6  H

outcell: Unit cell vectors (Ang):
        9.510130    0.000000    0.000000
        0.000000    9.502434    0.000000
        0.000000    0.000000    7.593875

outcell: Cell vector modules (Ang)   :    9.510130    9.502434    7.593875
outcell: Cell angles (23,13,12) (deg):     90.0000     90.0000     90.0000
outcell: Cell volume (Ang**3)        :    686.2538
Gamma-point calculation with multiply-connected orbital pairs
Folding of H and S implicitly performed
<dSpData1D:S at geom step 4
  <sparsity:sparsity for geom step 4
    nrows_g=12 nrows=12 sparsity=1.0000 nnzs=144, refcount: 7>
  <dData1D:(new from dSpData1D) n=144, refcount: 1>
refcount: 1>
new_DM -- step:     4
Re-using DM from previous geometries...
Number of DMs in history: 1
 DM extrapolation coefficients: 
1   1.00000
New DM after history re-use:
<dSpData2D:SpM extrapolated using coords
  <sparsity:sparsity for geom step 4
    nrows_g=12 nrows=12 sparsity=1.0000 nnzs=144, refcount: 9>
  <dData2D:(temp array for extrapolation) n=144 m=1, refcount: 1>
refcount: 1>
No. of atoms with KB's overlaping orbs in proc 0. Max # of overlaps:       6      11

InitMesh: MESH = 60 x 60 x 48 = 172800
InitMesh: Mesh cutoff (required, used) =   100.000   110.010 Ry
New grid distribution [1]: sub = 2

        iscf     Eharris(eV)        E_KS(eV)     FreeEng(eV)     dDmax    Ef(eV) dHmax(eV)
   scf:    1     -926.018707     -925.309894     -925.309894  0.083905 -2.809658  0.895783
   scf:    2     -925.069552     -925.268396     -925.268396  0.085897 -3.269769  1.279404
   scf:    3     -925.396810     -925.359147     -925.359147  0.048995 -2.994390  0.061395
   scf:    4     -925.359305     -925.359228     -925.359228  0.001079 -2.986744  0.044991
   scf:    5     -925.359400     -925.359318     -925.359318  0.002512 -2.972540  0.007866
   scf:    6     -925.359328     -925.359324     -925.359324  0.000446 -2.971213  0.002557
   scf:    7     -925.359325     -925.359324     -925.359324  0.000164 -2.970859  0.000642
   scf:    8     -925.359324     -925.359324     -925.359324  0.000018 -2.970904  0.000412

SCF Convergence by DM+H criterion
max |DM_out - DM_in|         :     0.0000175040
max |H_out - H_in|      (eV) :     0.0004115946
SCF cycle converged after 8 iterations

Using DM_out to compute the final energy and forces
No. of atoms with KB's overlaping orbs in proc 0. Max # of overlaps:       6      11

siesta: E_KS(eV) =             -925.3593

siesta: Atomic forces (eV/Ang):
     1    0.234997   -2.024458    0.112234
     2    2.310756    1.138029    0.286651
     3   -2.495396    0.928411    0.068160
     4   -0.256250    1.878729    0.013064
     5    2.570750   -1.220089   -1.021317
     6   -2.332507   -0.686565    0.540123
----------------------------------------
   Tot    0.032350    0.014057   -0.001085
----------------------------------------
   Max    2.570750
   Res    1.432099    sqrt( Sum f_i^2 / 3N )
----------------------------------------
   Max    2.570750    constrained

Stress tensor Voigt[x,y,z,yz,xz,xy] (kbar):      -16.85       -6.91       -0.47       -1.54        2.23        0.50
(Free)E + p*V (eV/cell)     -921.9001
Target enthalpy (eV/cell)     -882.5267

siesta: Stress tensor (static) (eV/Ang**3):
        -0.010287    0.000339    0.001365
         0.000339   -0.004122   -0.000911
         0.001366   -0.000910   -0.000068

siesta: Pressure (static):          7.73134114  kBar

siesta: Stress tensor (total) (eV/Ang**3):
        -0.010515    0.000310    0.001392
         0.000310   -0.004314   -0.000959
         0.001392   -0.000959   -0.000294

siesta: Pressure (total):          8.07623460  kBar
 Anneal: Kinetic Energy=    6.6239611649276442E-002
 Anneal: Velocity scale factor =   0.98853984912831561     
 Anneal: Cell scale factor =   0.99602297170723231     

siesta: Temp_ion =    1362.676 K

                     ====================================
                        Begin MD step =      5
                     ====================================

outcoor: Atomic coordinates (Ang):                          
    0.03116237   -0.06453193   -0.00793916   1       1  O
    0.79554702    0.73092839    0.06800755   2       2  H
   -0.82295990    0.63728769   -0.01718158   2       3  H
   -0.02078434    0.06671398    2.84567741   1       4  O
    0.69017149   -0.72745652    2.57836335   2       5  H
   -0.82474397   -0.67305410    3.05382447   2       6  H

outcell: Unit cell vectors (Ang):
        9.479215    0.000000    0.000000
        0.000000    9.467272    0.000000
        0.000000    0.000000    7.563674

outcell: Cell vector modules (Ang)   :    9.479215    9.467272    7.563674
outcell: Cell angles (23,13,12) (deg):     90.0000     90.0000     90.0000
outcell: Cell volume (Ang**3)        :    678.7816
Gamma-point calculation with multiply-connected orbital pairs
Folding of H and S implicitly performed
<dSpData1D:S at geom step 5
  <sparsity:sparsity for geom step 5
    nrows_g=12 nrows=12 sparsity=1.0000 nnzs=144, refcount: 7>
  <dData1D:(new from dSpData1D) n=144, refcount: 1>
refcount: 1>
new_DM -- step:     5
Re-using DM from previous geometries...
Number of DMs in history: 1
 DM extrapolation coefficients: 
1   1.00000
New DM after history re-use:
<dSpData2D:SpM extrapolated using coords
  <sparsity:sparsity for geom step 5
    nrows_g=12 nrows=12 sparsity=1.0000 nnzs=144, refcount: 9>
  <dData2D:(temp array for extrapolation) n=144 m=1, refcount: 1>
refcount: 1>
No. of atoms with KB's overlaping orbs in proc 0. Max # of overlaps:       6      11

InitMesh: MESH = 60 x 60 x 48 = 172800
InitMesh: Mesh cutoff (required, used) =   100.000   110.729 Ry
New grid distribution [1]: sub = 2

        iscf     Eharris(eV)        E_KS(eV)     FreeEng(eV)     dDmax    Ef(eV) dHmax(eV)
   scf:    1     -926.402270     -925.591644     -925.591644  0.118759 -3.418432  1.389912
   scf:    2     -924.661454     -925.394591     -925.394591  0.146963 -4.122836  2.366815
   scf:    3     -925.850376     -925.723284     -925.723284  0.088149 -3.672571  0.100061
   scf:    4     -925.723728     -925.723518     -925.723518  0.001482 -3.656816  0.074182
   scf:    5     -925.723959     -925.723748     -925.723748  0.003023 -3.637322  0.026506
   scf:    6     -925.723822     -925.723789     -925.723789  0.001473 -3.630485  0.004278
   scf:    7     -925.723792     -925.723791     -925.723791  0.000304 -3.629474  0.001168
   scf:    8     -925.723791     -925.723791     -925.723791  0.000036 -3.629453  0.000533

SCF Convergence by DM+H criterion
max |DM_out - DM_in|         :     0.0000364251
max |H_out - H_in|      (eV) :     0.0005330969
SCF cycle converged after 8 iterations

Using DM_out to compute the final energy and forces
No. of atoms with KB's overlaping orbs in proc 0. Max # of overlaps:       6      11

siesta: E_KS(eV) =             -925.7238

siesta: Atomic forces (eV/Ang):
     1    0.047447    0.686771    0.205701
     2    0.149413   -0.347994    0.115104
     3   -0.129419   -0.365430    0.124147
     4   -0.307504   -0.870017   -0.072881
     5    0.499872    0.320898   -0.393738
     6   -0.219679    0.592336    0.028248
----------------------------------------
   Tot    0.040130    0.016562    0.006582
----------------------------------------
   Max    0.870017
   Res    0.380291    sqrt( Sum f_i^2 / 3N )
----------------------------------------
   Max    0.870017    constrained

Stress tensor Voigt[x,y,z,yz,xz,xy] (kbar):       -4.20        1.98       -0.38       -1.32        1.27        0.37
(Free)E + p*V (eV/cell)     -925.3565
Target enthalpy (eV/cell)     -883.3576

siesta: Stress tensor (static) (eV/Ang**3):
        -0.001126    0.000309    0.000473
         0.000309    0.001901   -0.000655
         0.000473   -0.000654    0.000179

siesta: Pressure (static):         -0.50937295  kBar

siesta: Stress tensor (total) (eV/Ang**3):
        -0.002622    0.000230    0.000790
         0.000230    0.001236   -0.000827
         0.000790   -0.000826   -0.000238

siesta: Pressure (total):          0.86683542  kBar
 Anneal: Kinetic Energy=    8.9867304868900127E-002
 Anneal: Velocity scale factor =   0.98624842220226849     
 Anneal: Cell scale factor =   0.99601379039696858     

siesta: Temp_ion =    1840.182 K

                     ====================================
                        Begin MD step =      6
                     ====================================

outcoor: Atomic coordinates (Ang):                          
    0.03373183   -0.07058817   -0.00794659   1       1  O
    0.85461105    0.75900703    0.08413440   2       2  H
   -0.88844339    0.65274114   -0.01274599   2       3  H
   -0.02206016    0.07315571    2.83446020   1       4  O
    0.73440660   -0.75614364    2.51904126   2       5  H
   -0.88185608   -0.69376568    3.06942960   2       6  H

outcell: Unit cell vectors (Ang):
        9.443271    0.000000    0.000000
        0.000000    9.428625    0.000000
        0.000000    0.000000    7.533524

outcell: Cell vector modules (Ang)   :    9.443271    9.428625    7.533524
outcell: Cell angles (23,13,12) (deg):     90.0000     90.0000     90.0000
outcell: Cell volume (Ang**3)        :    670.7628
Gamma-point calculation with multiply-connected orbital pairs
Folding of H and S implicitly performed
<dSpData1D:S at geom step 6
  <sparsity:sparsity for geom step 6
    nrows_g=12 nrows=12 sparsity=1.0000 nnzs=144, refcount: 7>
  <dData1D:(new from dSpData1D) n=144, refcount: 1>
refcount: 1>
new_DM -- step:     6
Re-using DM from previous geometries...
Number of DMs in history: 1
 DM extrapolation coefficients: 
1   1.00000
New DM after history re-use:
<dSpData2D:SpM extrapolated using coords
  <sparsity:sparsity for geom step 6
    nrows_g=12 nrows=12 sparsity=1.0000 nnzs=144, refcount: 9>
  <dData2D:(temp array for extrapolation) n=144 m=1, refcount: 1>
refcount: 1>
Note: For starting DM, Qtot, Tr[D*S] =         16.00000000         15.97473509
No. of atoms with KB's overlaping orbs in proc 0. Max # of overlaps:       6      11

InitMesh: MESH = 60 x 60 x 48 = 172800
InitMesh: Mesh cutoff (required, used) =   100.000   111.573 Ry
New grid distribution [1]: sub = 2

        iscf     Eharris(eV)        E_KS(eV)     FreeEng(eV)     dDmax    Ef(eV) dHmax(eV)
   scf:    1     -925.980514     -925.363504     -925.363504  0.106376 -0.860507  1.407472
   scf:    2     -923.981405     -925.035241     -925.035241  0.168288 -4.698357  2.782944
   scf:    3     -925.672233     -925.504483     -925.504483  0.106154 -1.082856  0.107152
   scf:    4     -925.505085     -925.504810     -925.504810  0.001416 -1.067779  0.079407
   scf:    5     -925.505336     -925.505084     -925.505084  0.002786 -1.052656  0.032447
   scf:    6     -925.505190     -925.505142     -925.505142  0.001767 -1.045143  0.003570
   scf:    7     -925.505139     -925.505138     -925.505138  0.000229 -1.044436  0.000912
   scf:    8     -925.505138     -925.505138     -925.505138  0.000031 -1.044368  0.000504

SCF Convergence by DM+H criterion
max |DM_out - DM_in|         :     0.0000307331
max |H_out - H_in|      (eV) :     0.0005035859
SCF cycle converged after 8 iterations

Using DM_out to compute the final energy and forces
No. of atoms with KB's overlaping orbs in proc 0. Max # of overlaps:       6      11

siesta: E_KS(eV) =             -925.5051

siesta: Atomic forces (eV/Ang):
     1   -0.073053    2.253932    0.292284
     2   -1.262937   -1.233788   -0.027172
     3    1.422856   -1.101502    0.154112
     4   -0.269731   -2.527726   -0.185945
     5   -0.938315    1.311758    0.136892
     6    1.168804    1.313800   -0.360961
----------------------------------------
   Tot    0.047623    0.016474    0.009210
----------------------------------------
   Max    2.527726
   Res    1.152042    sqrt( Sum f_i^2 / 3N )
----------------------------------------
   Max    2.527726    constrained

Stress tensor Voigt[x,y,z,yz,xz,xy] (kbar):        6.09        8.28       -0.07       -0.92        0.18        0.26
(Free)E + p*V (eV/cell)     -927.5012
Target enthalpy (eV/cell)     -883.6394

siesta: Stress tensor (static) (eV/Ang**3):
         0.006044    0.000213   -0.000371
         0.000213    0.005923   -0.000338
        -0.000371   -0.000338    0.000480

siesta: Pressure (static):         -6.64704518  kBar

siesta: Stress tensor (total) (eV/Ang**3):
         0.003800    0.000161    0.000113
         0.000161    0.005169   -0.000572
         0.000113   -0.000571   -0.000042

siesta: Pressure (total):         -4.76787542  kBar
 Anneal: Kinetic Energy=    6.9099471364891307E-002
 Anneal: Velocity scale factor =   0.98817949297793861     
 Anneal: Cell scale factor =   0.99599341394660768     

siesta: Temp_ion =    1420.473 K

                     ====================================
                        Begin MD step =      7
                     ====================================

outcoor: Atomic coordinates (Ang):                          
    0.03615694   -0.07508628   -0.00777926   1       1  O
    0.89941147    0.77427286    0.09948746   2       2  H
   -0.93793476    0.65707175   -0.00699628   2       3  H
   -0.02344272    0.07786356    2.82311610   1       4  O
    0.76797417   -0.77126539    2.46254527   2       5  H
   -0.92563646   -0.70117137    3.08074402   2       6  H

outcell: Unit cell vectors (Ang):
        9.402847    0.000000    0.000000
        0.000000    9.387499    0.000000
        0.000000    0.000000    7.503340

outcell: Cell vector modules (Ang)   :    9.402847    9.387499    7.503340
outcell: Cell angles (23,13,12) (deg):     90.0000     90.0000     90.0000
outcell: Cell volume (Ang**3)        :    662.3139
Gamma-point calculation with multiply-connected orbital pairs
Folding of H and S implicitly performed
<dSpData1D:S at geom step 7
  <sparsity:sparsity for geom step 7
    nrows_g=12 nrows=12 sparsity=1.0000 nnzs=144, refcount: 7>
  <dData1D:(new from dSpData1D) n=144, refcount: 1>
refcount: 1>
new_DM -- step:     7
Re-using DM from previous geometries...
Number of DMs in history: 1
 DM extrapolation coefficients: 
1   1.00000
New DM after history re-use:
<dSpData2D:SpM extrapolated using coords
  <sparsity:sparsity for geom step 7
    nrows_g=12 nrows=12 sparsity=1.0000 nnzs=144, refcount: 9>
  <dData2D:(temp array for extrapolation) n=144 m=1, refcount: 1>
refcount: 1>
Note: For starting DM, Qtot, Tr[D*S] =         16.00000000         15.97509722
No. of atoms with KB's overlaping orbs in proc 0. Max # of overlaps:       6      11

InitMesh: MESH = 60 x 60 x 48 = 172800
InitMesh: Mesh cutoff (required, used) =   100.000   112.535 Ry
New grid distribution [1]: sub = 2

        iscf     Eharris(eV)        E_KS(eV)     FreeEng(eV)     dDmax    Ef(eV) dHmax(eV)
   scf:    1     -925.469207     -925.040842     -925.040842  0.067310 -1.385885  1.018083
   scf:    2     -924.134235     -924.812377     -924.812377  0.131284 -1.861970  2.223506
   scf:    3     -925.214287     -925.114190     -925.114190  0.086644 -1.532688  0.082799
   scf:    4     -925.114584     -925.114397     -925.114397  0.001137 -1.522612  0.060097
   scf:    5     -925.114744     -925.114580     -925.114580  0.002272 -1.510442  0.019448
   scf:    6     -925.114620     -925.114602     -925.114602  0.001025 -1.506012  0.001883
   scf:    7     -925.114603     -925.114603     -925.114603  0.000107 -1.505612  0.000762
   scf:    8     -925.114603     -925.114603     -925.114603  0.000021 -1.505551  0.000453

SCF Convergence by DM+H criterion
max |DM_out - DM_in|         :     0.0000207266
max |H_out - H_in|      (eV) :     0.0004534824
SCF cycle converged after 8 iterations

Using DM_out to compute the final energy and forces
No. of atoms with KB's overlaping orbs in proc 0. Max # of overlaps:       6      11

siesta: E_KS(eV) =             -925.1146

siesta: Atomic forces (eV/Ang):
     1   -0.126617    2.905708    0.349886
     2   -2.008704   -1.624903   -0.120821
     3    2.240265   -1.399255    0.167224
     4   -0.225744   -3.237494   -0.268901
     5   -1.732926    1.773573    0.481386
     6    1.905517    1.598345   -0.599840
----------------------------------------
   Tot    0.051791    0.015975    0.008934
----------------------------------------
   Max    3.237494
   Res    1.595245    sqrt( Sum f_i^2 / 3N )
----------------------------------------
   Max    3.237494    constrained

Stress tensor Voigt[x,y,z,yz,xz,xy] (kbar):       14.02       11.90        0.42       -0.44       -0.88        0.19
(Free)E + p*V (eV/cell)     -928.7440
Target enthalpy (eV/cell)     -883.7762

siesta: Stress tensor (static) (eV/Ang**3):
         0.010564    0.000133   -0.000989
         0.000133    0.007858   -0.000081
        -0.000988   -0.000081    0.000767

siesta: Pressure (static):        -10.24780073  kBar

siesta: Stress tensor (total) (eV/Ang**3):
         0.008749    0.000116   -0.000549
         0.000116    0.007430   -0.000273
        -0.000549   -0.000273    0.000261

siesta: Pressure (total):         -8.77979039  kBar
 Anneal: Kinetic Energy=    3.5018711247330844E-002
 Anneal: Velocity scale factor =   0.99627080381303801     
 Anneal: Cell scale factor =   0.99596921719297504     

siesta: Temp_ion =     731.714 K

                     ====================================
                        Begin MD step =      8
                     ====================================

outcoor: Atomic coordinates (Ang):                          
    0.03845234   -0.07775861   -0.00740460   1       1  O
    0.92405489    0.77371275    0.11344926   2       2  H
   -0.96497929    0.64791922    0.00025352   2       3  H
   -0.02492837    0.08054323    2.81158809   1       4  O
    0.78423806   -0.76915277    2.41131992   2       5  H
   -0.95024540   -0.69314529    3.08597081   2       6  H

outcell: Unit cell vectors (Ang):
        9.359311    0.000000    0.000000
        0.000000    9.345194    0.000000
        0.000000    0.000000    7.473096

outcell: Cell vector modules (Ang)   :    9.359311    9.345194    7.473096
outcell: Cell angles (23,13,12) (deg):     90.0000     90.0000     90.0000
outcell: Cell volume (Ang**3)        :    653.6311
Gamma-point calculation with multiply-connected orbital pairs
Folding of H and S implicitly performed
<dSpData1D:S at geom step 8
  <sparsity:sparsity for geom step 8
    nrows_g=12 nrows=12 sparsity=1.0000 nnzs=144, refcount: 7>
  <dData1D:(new from dSpData1D) n=144, refcount: 1>
refcount: 1>
new_DM -- step:     8
Re-using DM from previous geometries...
Number of DMs in history: 1
 DM extrapolation coefficients: 
1   1.00000
New DM after history re-use:
<dSpData2D:SpM extrapolated using coords
  <sparsity:sparsity for geom step 8
    nrows_g=12 nrows=12 sparsity=1.0000 nnzs=144, refcount: 9>
  <dData2D:(temp array for extrapolation) n=144 m=1, refcount: 1>
refcount: 1>
No. of atoms with KB's overlaping orbs in proc 0. Max # of overlaps:       6      12

InitMesh: MESH = 60 x 60 x 48 = 172800
InitMesh: Mesh cutoff (required, used) =   100.000   113.584 Ry
New grid distribution [1]: sub = 2

        iscf     Eharris(eV)        E_KS(eV)     FreeEng(eV)     dDmax    Ef(eV) dHmax(eV)
   scf:    1     -925.095877     -924.884218     -924.884218  0.024078 -1.633034  0.383590
   scf:    2     -924.754734     -924.850955     -924.850955  0.049345 -1.796313  0.862944
   scf:    3     -924.907304     -924.893881     -924.893881  0.033735 -1.679807  0.038033
   scf:    4     -924.893994     -924.893939     -924.893939  0.000810 -1.676182  0.026788
   scf:    5     -924.894038     -924.893993     -924.893993  0.001768 -1.669030  0.002454
   scf:    6     -924.893994     -924.893994     -924.893994  0.000145 -1.668571  0.001144
   scf:    7     -924.893994     -924.893994     -924.893994  0.000041 -1.668440  0.000483

SCF Convergence by DM+H criterion
max |DM_out - DM_in|         :     0.0000414974
max |H_out - H_in|      (eV) :     0.0004827769
SCF cycle converged after 7 iterations

Using DM_out to compute the final energy and forces
No. of atoms with KB's overlaping orbs in proc 0. Max # of overlaps:       6      12

siesta: E_KS(eV) =             -924.8940

siesta: Atomic forces (eV/Ang):
     1   -0.136811    2.991277    0.376405
     2   -2.321461   -1.702386   -0.172516
     3    2.581879   -1.431702    0.174314
     4   -0.175744   -3.340976   -0.316577
     5   -2.104065    1.891945    0.673660
     6    2.211781    1.606856   -0.727310
----------------------------------------
   Tot    0.055579    0.015014    0.007977
----------------------------------------
   Max    3.340976
   Res    1.730896    sqrt( Sum f_i^2 / 3N )
----------------------------------------
   Max    3.340976    constrained

Stress tensor Voigt[x,y,z,yz,xz,xy] (kbar):       19.11       13.01        0.96        0.00       -1.75        0.10
(Free)E + p*V (eV/cell)     -929.3918
Target enthalpy (eV/cell)     -884.0975

siesta: Stress tensor (static) (eV/Ang**3):
         0.012828    0.000060   -0.001364
         0.000059    0.008237    0.000084
        -0.001363    0.000085    0.001013

siesta: Pressure (static):        -11.79087181  kBar

siesta: Stress tensor (total) (eV/Ang**3):
         0.011925    0.000065   -0.001092
         0.000065    0.008122    0.000001
        -0.001091    0.000002    0.000597

siesta: Pressure (total):        -11.02493767  kBar
 Anneal: Kinetic Energy=    1.4183267252346215E-002
 Anneal: Velocity scale factor =    1.0199902354699240     
 Anneal: Cell scale factor =   0.99594706064242056     

siesta: Temp_ion =     310.638 K

                     ====================================
                        Begin MD step =      9
                     ====================================

outcoor: Atomic coordinates (Ang):                          
    0.04073215   -0.07869140   -0.00678840   1       1  O
    0.92685967    0.75669292    0.12618847   2       2  H
   -0.96772618    0.62465808    0.00942736   2       3  H
   -0.02656573    0.08126982    2.79984499   1       4  O
    0.78052673   -0.74868998    2.36532101   2       5  H
   -0.95407960   -0.66934875    3.08466707   2       6  H

outcell: Unit cell vectors (Ang):
        9.314193    0.000000    0.000000
        0.000000    9.302838    0.000000
        0.000000    0.000000    7.442808

outcell: Cell vector modules (Ang)   :    9.314193    9.302838    7.442808
outcell: Cell angles (23,13,12) (deg):     90.0000     90.0000     90.0000
outcell: Cell volume (Ang**3)        :    644.9076
Gamma-point calculation with multiply-connected orbital pairs
Folding of H and S implicitly performed
<dSpData1D:S at geom step 9
  <sparsity:sparsity for geom step 9
    nrows_g=12 nrows=12 sparsity=1.0000 nnzs=144, refcount: 7>
  <dData1D:(new from dSpData1D) n=144, refcount: 1>
refcount: 1>
new_DM -- step:     9
Re-using DM from previous geometries...
Number of DMs in history: 1
 DM extrapolation coefficients: 
1   1.00000
New DM after history re-use:
<dSpData2D:SpM extrapolated using coords
  <sparsity:sparsity for geom step 9
    nrows_g=12 nrows=12 sparsity=1.0000 nnzs=144, refcount: 9>
  <dData2D:(temp array for extrapolation) n=144 m=1, refcount: 1>
refcount: 1>
No. of atoms with KB's overlaping orbs in proc 0. Max # of overlaps:       6      12

InitMesh: MESH = 60 x 60 x 48 = 172800
InitMesh: Mesh cutoff (required, used) =   100.000   114.687 Ry
New grid distribution [1]: sub = 2

        iscf     Eharris(eV)        E_KS(eV)     FreeEng(eV)     dDmax    Ef(eV) dHmax(eV)
   scf:    1     -924.818008     -924.966850     -924.966850  0.041122 -1.592297  0.400405
   scf:    2     -924.847208     -924.936225     -924.936225  0.051935 -1.397474  0.848196
   scf:    3     -924.988092     -924.975891     -924.975891  0.035273 -1.533617  0.024033
   scf:    4     -924.975989     -924.975941     -924.975941  0.000890 -1.534593  0.016581
   scf:    5     -924.976019     -924.975985     -924.975985  0.001975 -1.537507  0.002744
   scf:    6     -924.975985     -924.975985     -924.975985  0.000081 -1.537840  0.001127
   scf:    7     -924.975985     -924.975985     -924.975985  0.000060 -1.538003  0.000512

SCF Convergence by DM+H criterion
max |DM_out - DM_in|         :     0.0000602368
max |H_out - H_in|      (eV) :     0.0005115845
SCF cycle converged after 7 iterations

Using DM_out to compute the final energy and forces
No. of atoms with KB's overlaping orbs in proc 0. Max # of overlaps:       6      12

siesta: E_KS(eV) =             -924.9760

siesta: Atomic forces (eV/Ang):
     1   -0.115976    2.659238    0.369764
     2   -2.320331   -1.544236   -0.186248
     3    2.579642   -1.273019    0.182471
     4   -0.093081   -3.001616   -0.335051
     5   -2.192263    1.769646    0.741127
     6    2.200356    1.403729   -0.766720
----------------------------------------
   Tot    0.058347    0.013742    0.005343
----------------------------------------
   Max    3.001616
   Res    1.638951    sqrt( Sum f_i^2 / 3N )
----------------------------------------
   Max    3.001616    constrained

Stress tensor Voigt[x,y,z,yz,xz,xy] (kbar):       20.67       11.66        1.43        0.32       -2.25       -0.03
(Free)E + p*V (eV/cell)     -929.5057
Target enthalpy (eV/cell)     -884.7240

siesta: Stress tensor (static) (eV/Ang**3):
         0.013110   -0.000042   -0.001493
        -0.000042    0.007369    0.000144
        -0.001493    0.000145    0.001209

siesta: Pressure (static):        -11.58295927  kBar

siesta: Stress tensor (total) (eV/Ang**3):
         0.012903   -0.000020   -0.001406
        -0.000020    0.007278    0.000196
        -0.001406    0.000197    0.000891

siesta: Pressure (total):        -11.25335268  kBar
 Anneal: Kinetic Energy=    1.6204271123392646E-002
 Anneal: Velocity scale factor =    1.0150640576934502     
 Anneal: Cell scale factor =   0.99592902575020414     

siesta: Temp_ion =     351.482 K

                     ====================================
                        Begin MD step =     10
                     ====================================

outcoor: Atomic coordinates (Ang):                          
    0.04299113   -0.07803824   -0.00593395   1       1  O
    0.90737179    0.72452635    0.13741383   2       2  H
   -0.94567574    0.58871778    0.02056751   2       3  H
   -0.02829531    0.08019800    2.78788570   1       4  O
    0.75561586   -0.71082662    2.32569796   2       5  H
   -0.93680448   -0.63160615    3.07618430   2       6  H

outcell: Unit cell vectors (Ang):
        9.269030    0.000000    0.000000
        0.000000    9.261392    0.000000
        0.000000    0.000000    7.412508

outcell: Cell vector modules (Ang)   :    9.269030    9.261392    7.412508
outcell: Cell angles (23,13,12) (deg):     90.0000     90.0000     90.0000
outcell: Cell volume (Ang**3)        :    636.3202
Gamma-point calculation with multiply-connected orbital pairs
Folding of H and S implicitly performed
<dSpData1D:S at geom step 10
  <sparsity:sparsity for geom step 10
    nrows_g=12 nrows=12 sparsity=1.0000 nnzs=144, refcount: 7>
  <dData1D:(new from dSpData1D) n=144, refcount: 1>
refcount: 1>
new_DM -- step:    10
Re-using DM from previous geometries...
Number of DMs in history: 1
 DM extrapolation coefficients: 
1   1.00000
New DM after history re-use:
<dSpData2D:SpM extrapolated using coords
  <sparsity:sparsity for geom step 10
    nrows_g=12 nrows=12 sparsity=1.0000 nnzs=144, refcount: 9>
  <dData2D:(temp array for extrapolation) n=144 m=1, refcount: 1>
refcount: 1>
Note: For starting DM, Qtot, Tr[D*S] =         16.00000000         16.03247991
No. of atoms with KB's overlaping orbs in proc 0. Max # of overlaps:       6      12

InitMesh: MESH = 60 x 60 x 48 = 172800
InitMesh: Mesh cutoff (required, used) =   100.000   115.807 Ry
New grid distribution [1]: sub = 2

        iscf     Eharris(eV)        E_KS(eV)     FreeEng(eV)     dDmax    Ef(eV) dHmax(eV)
   scf:    1     -924.585334     -925.263335     -925.263335  0.092233 -1.242299  1.031021
   scf:    2     -924.505686     -925.075898     -925.075898  0.128479 -2.253003  2.095281
   scf:    3     -925.410318     -925.329664     -925.329664  0.086441 -2.623695  0.083492
   scf:    4     -925.330138     -925.329911     -925.329911  0.001815 -2.627507  0.057652
   scf:    5     -925.330265     -925.330104     -925.330104  0.003178 -2.639033  0.013763
   scf:    6     -925.330119     -925.330112     -925.330112  0.000693 -2.643461  0.003903
   scf:    7     -925.330113     -925.330113     -925.330113  0.000113 -2.644295  0.001516
   scf:    8     -925.330113     -925.330113     -925.330113  0.000044 -2.644396  0.001100
   scf:    9     -925.330113     -925.330113     -925.330113  0.000045 -2.644414  0.000500

SCF Convergence by DM+H criterion
max |DM_out - DM_in|         :     0.0000448458
max |H_out - H_in|      (eV) :     0.0004997695
SCF cycle converged after 9 iterations

Using DM_out to compute the final energy and forces
No. of atoms with KB's overlaping orbs in proc 0. Max # of overlaps:       6      12

siesta: E_KS(eV) =             -925.3301

siesta: Atomic forces (eV/Ang):
     1   -0.058456    1.877007    0.311360
     2   -1.967677   -1.126413   -0.145642
     3    2.188761   -0.913068    0.198224
     4    0.065914   -2.208210   -0.319134
     5   -2.000682    1.411844    0.653343
     6    1.833950    0.971172   -0.696502
----------------------------------------
   Tot    0.061810    0.012332    0.001649
----------------------------------------
   Max    2.208210
   Res    1.304817    sqrt( Sum f_i^2 / 3N )
----------------------------------------
   Max    2.208210    constrained

Stress tensor Voigt[x,y,z,yz,xz,xy] (kbar):       17.76        7.81        1.71        0.40       -2.19       -0.27
(Free)E + p*V (eV/cell)     -928.9409
Target enthalpy (eV/cell)     -885.6141

siesta: Stress tensor (static) (eV/Ang**3):
         0.011132   -0.000215   -0.001302
        -0.000215    0.005301    0.000055
        -0.001302    0.000056    0.001298

siesta: Pressure (static):         -9.46942977  kBar

siesta: Stress tensor (total) (eV/Ang**3):
         0.011083   -0.000167   -0.001369
        -0.000168    0.004876    0.000249
        -0.001369    0.000249    0.001065

siesta: Pressure (total):         -9.09143288  kBar
 Anneal: Kinetic Energy=    3.7657411873399688E-002
 Anneal: Velocity scale factor =   0.99512527354744285     
 Anneal: Cell scale factor =   0.99591896588205542     

siesta: Temp_ion =     785.041 K

siesta: Program's energy decomposition (eV):
siesta: Ebs     =      -182.301709
siesta: Eions   =      1621.026762
siesta: Ena     =       348.154679
siesta: Ekin    =       678.712803
siesta: Enl     =      -111.000421
siesta: Eso     =         0.000000
siesta: Edftu   =         0.000000
siesta: DEna    =        -5.453467
siesta: DUscf   =         3.025380
siesta: DUext   =         0.000000
siesta: Ex      =      -193.045366
siesta: Ec      =       -24.696959
siesta: Exc     =      -217.742325
siesta: EbV     =         0.000000
siesta: eta*DQ  =         0.000000
siesta: Emadel  =         0.000000
siesta: Emeta   =         0.000000
siesta: Emolmec =         0.000000
siesta: Ekinion =         0.507372
siesta: Eharris =      -924.822741
siesta: Etot    =      -924.822741
siesta: FreeEng =      -924.822741

siesta: Final energy (eV):
siesta:  Band Struct. =    -182.301709
siesta:       Kinetic =     678.712803
siesta:       Hartree =     895.591736
siesta:         Edftu =       0.000000
siesta:       Eso     =       0.000000
siesta:    Ext. field =       0.000000
siesta:         Exch. =    -193.045366
siesta:         Corr. =     -24.696959
siesta:     Bulk bias =       0.000000
siesta:   Exch.-corr. =    -217.742325
siesta:  Ion-electron =   -2366.951109
siesta:       Ion-ion =      85.058781
siesta:       Ekinion =       0.507372
siesta: D3 dispersion =       0.000000
siesta:         Total =    -924.822741
siesta:         Fermi =      -2.644414

siesta: Atomic forces (eV/Ang):
siesta:      1   -0.058456    1.877007    0.311360
siesta:      2   -1.967677   -1.126413   -0.145642
siesta:      3    2.188761   -0.913068    0.198224
siesta:      4    0.065914   -2.208210   -0.319134
siesta:      5   -2.000682    1.411844    0.653343
siesta:      6    1.833950    0.971172   -0.696502
siesta: ----------------------------------------
siesta:    Tot    0.061810    0.012332    0.001649

siesta: Stress tensor (static) (eV/Ang**3):
siesta:     0.011132   -0.000215   -0.001302
siesta:    -0.000215    0.005301    0.000055
siesta:    -0.001302    0.000056    0.001298

siesta: Cell volume =        636.320229 Ang**3

siesta: Pressure (static):
siesta:                Solid            Molecule  Units
siesta:          -0.00006437          0.00000360  Ry/Bohr**3
siesta:          -0.00591035          0.00033093  eV/Ang**3
siesta:          -9.46942977          0.53020635  kBar
(Free)E+ p_basis*V_orbitals  =        -924.680099
(Free)Eharris+ p_basis*V_orbitals  =        -924.680099

siesta: Electric dipole (a.u.)  =   -0.121194    0.018611   -0.000000
siesta: Electric dipole (Debye) =   -0.308044    0.047304   -0.000000

cite: Please see "anneal_pt.bib" for an exhaustive BiBTeX file.
cite: Please clearly indicate Siesta version in published work: 5.0.0-alpha-123-gfb8fd7d02
cite: This calculation has made use of the following articles
cite: which are encouraged to be cited in a published work.
        Primary SIESTA paper
          DOI: www.doi.org/10.1088/0953-8984/14/11/302


timer: Elapsed wall time (sec) =       1.675
timer: CPU execution times (sec):

Routine            Calls   Time/call    Tot.time        %
siesta                 1       1.675       1.675   100.00
Setup                  1       0.055       0.055     3.27
bands                  1       0.000       0.000     0.00
KSV_init               1       0.000       0.000     0.00
IterGeom              10       0.162       1.619    96.71
geom_init             10       0.031       0.310    18.51
state_init            10       0.000       0.005     0.28
hsparse               10       0.000       0.000     0.02
overlap               10       0.000       0.002     0.14
Setup_H0              10       0.018       0.180    10.77
naefs                 20       0.000       0.001     0.03
MolMec                20       0.000       0.000     0.00
kinefsm               20       0.000       0.002     0.13
nlefsm                20       0.001       0.015     0.90
DHSCF_Init            10       0.016       0.164     9.79
DHSCF1                10       0.003       0.026     1.56
INITMESH              10       0.000       0.000     0.00
DHSCF2                10       0.014       0.138     8.23
REMESH                10       0.001       0.006     0.34
REORD                288       0.000       0.031     1.84
PHION                 10       0.005       0.051     3.06
COMM_BSC             446       0.000       0.040     2.37
POISON               114       0.004       0.487    29.07
fft                  228       0.002       0.347    20.71
setup_H               94       0.012       1.141    68.15
DHSCF                104       0.014       1.412    84.34
DHSCF3               104       0.012       1.253    74.84
rhoofd               104       0.001       0.061     3.64
XC                   104       0.005       0.516    30.81
GXC-CellXC           104       0.005       0.471    28.15
gridxc@cellXC        104       0.005       0.471    28.13
vmat                 104       0.001       0.057     3.40
IterSCF               84       0.012       1.024    61.13
compute_dm            84       0.000       0.003     0.20
diagon                84       0.000       0.003     0.19
r-eigvec              84       0.000       0.003     0.15
r-buildHS             84       0.000       0.000     0.00
rdiag                 84       0.000       0.002     0.14
rdiag1                84       0.000       0.000     0.01
rdiag2                84       0.000       0.000     0.02
rdiag3                84       0.000       0.001     0.08
rdiag4                84       0.000       0.000     0.01
r-buildD              84       0.000       0.000     0.02
MIXER                 74       0.000       0.000     0.03
PostSCF               10       0.028       0.282    16.86
DHSCF4                10       0.016       0.159     9.50
dfscf                 10       0.011       0.113     6.75
overfsm               10       0.000       0.000     0.02
state_analysis        10       0.000       0.001     0.06
siesta_move           10       0.000       0.002     0.10
Analysis               1       0.000       0.000     0.01
optical                1       0.000       0.000     0.00
  

>> End of run:  28-SEP-2023  15:37:57
Job completed
